curl -X POST http://127.0.0.1:8090/auth/users/create/ --data 'username=danidee&email=ataxanr4@gmail.com&password=mypassword'


curl -X POST http://127.0.0.1:8090/auth/token/create/ --data 'username=danidee&password=mypassword'

{"auth_token":"63eca992626d25f2502f3ed4d0693397375be47e"}




curl -X POST http://127.0.0.1:8000/auth/users/create/ --data 'username=apiuser&email=apiuser@gmail.com&password=mypassword'

curl -X POST http://127.0.0.1:8000/auth/token/create/ --data 'username=apiuser&password=mypassword'
{"auth_token":"ccdab7e3098f592eeef357ebb1c6c846005c3ad3"}


curl -X POST http://127.0.0.1:8000/auth/token/create/ --data 'username=customer1@mail.com&password=Kartal010203'
{"auth_token":"d694c3221308ba8d9bfd625ad32fa451d6228f87"}

curl -X GET http://127.0.0.1:8000/api/v1/customer/notes/list/ --data 'search_key=ewe&start_date=2018-04-03&end_date=' -H 'Authorization: Token d694c3221308ba8d9bfd625ad32fa451d6228f87'


curl -X POST http://127.0.0.1:8000/auth/token/create/ --data 'username=customer1@mail.com&password=Kartal010203'
